{
    "dbn": "01M448",
    "school_name": "UNIVERSITY NEIGHBORHOOD HIGH SCHOOL",
    "num_of_sat_test_takers": "91",
    "sat_critical_reading_avg_score": "383",
    "sat_math_avg_score": "423",
    "sat_writing_avg_score": "366"
}
